%YAML 1.1
%TAG !u! tag:unity3d.com,2011:
--- !u!1 &5834888452754848775
GameObject:
  m_ObjectHideFlags: 0
  m_CorrespondingSourceObject: {fileID: 0}
  m_PrefabInstance: {fileID: 0}
  m_PrefabAsset: {fileID: 0}
  serializedVersion: 6
  m_Component:
  - component: {fileID: 5834888452754848773}
  - component: {fileID: 5834888452754848772}
  m_Layer: 0
  m_Name: Room_4x4x1
  m_TagString: Untagged
  m_Icon: {fileID: 0}
  m_NavMeshLayer: 0
  m_StaticEditorFlags: 0
  m_IsActive: 1
--- !u!4 &5834888452754848773
Transform:
  m_ObjectHideFlags: 0
  m_CorrespondingSourceObject: {fileID: 0}
  m_PrefabInstance: {fileID: 0}
  m_PrefabAsset: {fileID: 0}
  m_GameObject: {fileID: 5834888452754848775}
  m_LocalRotation: {x: 0, y: 0, z: 0, w: 1}
  m_LocalPosition: {x: 0, y: 0, z: 0}
  m_LocalScale: {x: 1, y: 1, z: 1}
  m_ConstrainProportionsScale: 0
  m_Children: []
  m_Father: {fileID: 0}
  m_RootOrder: 0
  m_LocalEulerAnglesHint: {x: 0, y: 0, z: 0}
--- !u!114 &5834888452754848772
MonoBehaviour:
  m_ObjectHideFlags: 0
  m_CorrespondingSourceObject: {fileID: 0}
  m_PrefabInstance: {fileID: 0}
  m_PrefabAsset: {fileID: 0}
  m_GameObject: {fileID: 5834888452754848775}
  m_Enabled: 1
  m_EditorHideFlags: 0
  m_Script: {fileID: 11500000, guid: 0786a5260a4a03a469c55fc5b559cf91, type: 3}
  m_Name: 
  m_EditorClassIdentifier: 
  Size: {x: 4, y: 1, z: 4}
  Rotation: 0
  MirrorX: 0
  MirrorZ: 0
  Rotated: 0
  DoorPositions:
  - {x: 0, y: 0, z: 1}
  - {x: 1, y: 0, z: 3}
  - {x: 2, y: 0, z: 0}
  - {x: 3, y: 0, z: 2}
  PropPositions:
  - {x: 2, y: 0, z: 2}
  - {x: 2, y: 0, z: 1}
  - {x: 0, y: 0, z: 3}
  - {x: 1, y: 0, z: 0}
  - {x: 0, y: 0, z: 0}
  - {x: 3, y: 0, z: 0}
  - {x: 2, y: 0, z: 3}
  - {x: 3, y: 0, z: 3}
  Position: {x: 0, y: 0, z: 0}
  Type: 0
  AccessType: 0
